{
    "version": "https://jsonfeed.org/version/1",
    "title": "Kolla Korner",
    "description": "",
    "home_page_url": "https://kollakorner.com",
    "feed_url": "https://kollakorner.com/feed.json",
    "user_comment": "",
    "icon": "https://kollakorner.com/media/website/kk-text-logo-small.png",
    "author": {
        "name": "Richard L. Kolla"
    },
    "items": [
    ]
}
